<?xml version="1.0" encoding="utf-8"?>
<!-- Generator: Adobe Illustrator 23.0.3, SVG Export Plug-In . SVG Version: 6.00 Build 0)  -->
<svg version="1.1" id="Ebene_1" xmlns="http://www.w3.org/2000/svg" xmlns:xlink="http://www.w3.org/1999/xlink" x="0px" y="0px"
	 viewBox="0 0 30 30" style="enable-background:new 0 0 30 30;" xml:space="preserve">
<style type="text/css">
	.st0{fill:#262626;}
	.st1{fill:#2E3192;}
	.st2{fill:none;stroke:#FFFFFF;stroke-miterlimit:10;}
	.st3{fill:none;stroke:#C1272D;stroke-width:0.25;stroke-miterlimit:10;}
	.st4{fill:none;stroke:#FFFFFF;stroke-width:3;stroke-miterlimit:10;}
	.st5{fill:none;stroke:#C1272D;stroke-width:1.8;stroke-miterlimit:10;}
	.st6{fill:none;stroke:#C1272D;stroke-width:1.5;stroke-miterlimit:10;}
	.st7{fill-rule:evenodd;clip-rule:evenodd;fill:none;stroke:#000000;stroke-miterlimit:10;}
	.st8{fill:none;stroke:#000000;stroke-miterlimit:10;}
	.st9{fill:#B71D25;}
	.st10{fill:#FFCC00;}
	.st11{fill:#FFFFFF;}
	.st12{fill:#C1272D;}
	.st13{fill:#ED1C24;}
	.st14{fill:#2A36D8;}
	.st15{fill:none;stroke:#ED1C24;stroke-width:0.25;stroke-miterlimit:10;}
	.st16{fill:none;stroke:#ED1C24;stroke-width:1.8;stroke-miterlimit:10;}
	.st17{fill:#DD1000;}
	.st18{fill:none;stroke:#000000;stroke-linecap:square;stroke-linejoin:bevel;stroke-miterlimit:10;}
	.st19{fill:none;stroke:#000000;stroke-linecap:square;stroke-miterlimit:10;}
	.st20{fill:none;stroke:#000000;stroke-linecap:square;}
	.st21{fill:#0A1491;}
	.st22{fill-rule:evenodd;clip-rule:evenodd;fill:none;stroke:#000000;stroke-linecap:round;stroke-miterlimit:10;}
	.st23{fill:#FFD939;}
</style>
<rect x="0" y="5.2" class="st0" width="30" height="8.7"/>
<rect x="0" y="12" class="st17" width="30" height="6.7"/>
<rect x="0" y="18.7" class="st23" width="30" height="6.7"/>
</svg>
